<mxfile host="65bd71144e">
    <diagram id="5Td9szRD2EC1HoYeVz19" name="Page-1">
        <mxGraphModel dx="880" dy="773" grid="1" gridSize="10" guides="1" tooltips="1" connect="1" arrows="1" fold="1" page="1" pageScale="1" pageWidth="850" pageHeight="1100" background="#ffffff" math="0" shadow="0">
            <root>
                <mxCell id="0"/>
                <mxCell id="1" parent="0"/>
                <mxCell id="8" value="Utilisateur" style="shape=umlActor;verticalLabelPosition=bottom;verticalAlign=top;html=1;outlineConnect=0;strokeColor=#000000;fontColor=#000000;gradientColor=none;" parent="1" vertex="1">
                    <mxGeometry x="50" y="280" width="30" height="60" as="geometry"/>
                </mxCell>
                <mxCell id="10" value="Interne" style="shape=umlActor;verticalLabelPosition=bottom;verticalAlign=top;html=1;outlineConnect=0;strokeColor=#000000;fontColor=#000000;gradientColor=none;" parent="1" vertex="1">
                    <mxGeometry x="190" y="705" width="30" height="60" as="geometry"/>
                </mxCell>
                <mxCell id="11" value="Employés" style="shape=umlActor;verticalLabelPosition=bottom;verticalAlign=top;html=1;outlineConnect=0;strokeColor=#000000;fontColor=#000000;gradientColor=none;" parent="1" vertex="1">
                    <mxGeometry x="300" y="400" width="30" height="60" as="geometry"/>
                </mxCell>
                <mxCell id="12" value="Manager" style="shape=umlActor;verticalLabelPosition=bottom;verticalAlign=top;html=1;outlineConnect=0;strokeColor=#000000;fontColor=#000000;gradientColor=none;" parent="1" vertex="1">
                    <mxGeometry x="311" y="1072" width="30" height="60" as="geometry"/>
                </mxCell>
                <mxCell id="13" value="Pyschologue&lt;br&gt;du travail" style="shape=umlActor;verticalLabelPosition=bottom;verticalAlign=top;html=1;outlineConnect=0;strokeColor=#000000;fontColor=#000000;gradientColor=none;" parent="1" vertex="1">
                    <mxGeometry x="42" y="1590" width="30" height="60" as="geometry"/>
                </mxCell>
                <mxCell id="14" value="" style="endArrow=classic;html=1;fontColor=#000000;strokeColor=#000000;" parent="1" edge="1">
                    <mxGeometry width="50" height="50" relative="1" as="geometry">
                        <mxPoint x="180" y="700" as="sourcePoint"/>
                        <mxPoint x="84" y="369" as="targetPoint"/>
                    </mxGeometry>
                </mxCell>
                <mxCell id="16" value="" style="endArrow=classic;html=1;strokeColor=#000000;fontColor=#000000;" parent="1" edge="1">
                    <mxGeometry width="50" height="50" relative="1" as="geometry">
                        <mxPoint x="60" y="1582" as="sourcePoint"/>
                        <mxPoint x="60" y="380" as="targetPoint"/>
                    </mxGeometry>
                </mxCell>
                <mxCell id="17" value="" style="endArrow=classic;html=1;strokeColor=#000000;fontColor=#000000;" parent="1" edge="1">
                    <mxGeometry width="50" height="50" relative="1" as="geometry">
                        <mxPoint x="319" y="1059" as="sourcePoint"/>
                        <mxPoint x="221" y="793" as="targetPoint"/>
                    </mxGeometry>
                </mxCell>
                <mxCell id="19" value="" style="endArrow=classic;html=1;strokeColor=#000000;fontColor=#000000;" parent="1" edge="1">
                    <mxGeometry width="50" height="50" relative="1" as="geometry">
                        <mxPoint x="280" y="490" as="sourcePoint"/>
                        <mxPoint x="220" y="690" as="targetPoint"/>
                    </mxGeometry>
                </mxCell>
                <mxCell id="23" value="" style="endArrow=classic;html=1;strokeColor=#000000;fontColor=#000000;dashed=1;" parent="1" edge="1">
                    <mxGeometry width="50" height="50" relative="1" as="geometry">
                        <mxPoint x="89" y="320" as="sourcePoint"/>
                        <mxPoint x="410" y="320" as="targetPoint"/>
                    </mxGeometry>
                </mxCell>
                <mxCell id="24" value="" style="ellipse;whiteSpace=wrap;html=1;fillColor=#cce5ff;strokeColor=#36393d;" parent="1" vertex="1">
                    <mxGeometry x="420" y="270" width="160" height="100" as="geometry"/>
                </mxCell>
                <mxCell id="25" value="0 : Gérer connexion" style="text;html=1;strokeColor=none;fillColor=none;align=center;verticalAlign=middle;whiteSpace=wrap;rounded=0;fontColor=#000000;" parent="1" vertex="1">
                    <mxGeometry x="442.5" y="305" width="115" height="30" as="geometry"/>
                </mxCell>
                <mxCell id="26" value="" style="endArrow=classic;html=1;dashed=1;strokeColor=#000000;fontColor=#000000;" parent="1" edge="1">
                    <mxGeometry width="50" height="50" relative="1" as="geometry">
                        <mxPoint x="345" y="440" as="sourcePoint"/>
                        <mxPoint x="550" y="440" as="targetPoint"/>
                    </mxGeometry>
                </mxCell>
                <mxCell id="28" value="" style="ellipse;whiteSpace=wrap;html=1;strokeColor=#36393d;fillColor=#cce5ff;" parent="1" vertex="1">
                    <mxGeometry x="557.5" y="390" width="160" height="100" as="geometry"/>
                </mxCell>
                <mxCell id="29" value="1 : Rédiger un retour" style="text;html=1;strokeColor=none;fillColor=none;align=center;verticalAlign=middle;whiteSpace=wrap;rounded=0;fontColor=#000000;" parent="1" vertex="1">
                    <mxGeometry x="567.5" y="425" width="140" height="30" as="geometry"/>
                </mxCell>
                <mxCell id="37" value="" style="endArrow=classic;html=1;dashed=1;strokeColor=#000000;fontColor=#000000;startArrow=none;" parent="1" source="94" edge="1">
                    <mxGeometry width="50" height="50" relative="1" as="geometry">
                        <mxPoint x="717.5" y="410" as="sourcePoint"/>
                        <mxPoint x="840" y="330" as="targetPoint"/>
                    </mxGeometry>
                </mxCell>
                <mxCell id="46" value="" style="endArrow=classic;html=1;dashed=1;strokeColor=#000000;fontColor=#000000;startArrow=none;" parent="1" source="98" edge="1">
                    <mxGeometry width="50" height="50" relative="1" as="geometry">
                        <mxPoint x="707.5" y="475" as="sourcePoint"/>
                        <mxPoint x="840" y="540" as="targetPoint"/>
                    </mxGeometry>
                </mxCell>
                <mxCell id="58" value="" style="endArrow=classic;html=1;dashed=1;strokeColor=#000000;fontColor=#000000;" parent="1" edge="1">
                    <mxGeometry width="50" height="50" relative="1" as="geometry">
                        <mxPoint x="351" y="1113" as="sourcePoint"/>
                        <mxPoint x="491" y="1129" as="targetPoint"/>
                    </mxGeometry>
                </mxCell>
                <mxCell id="59" value="" style="ellipse;whiteSpace=wrap;html=1;strokeColor=#36393d;fillColor=#cce5ff;" parent="1" vertex="1">
                    <mxGeometry x="496.13" y="1092" width="162.5" height="100" as="geometry"/>
                </mxCell>
                <mxCell id="60" value="3 : Gérer le nombre de participants" style="text;html=1;strokeColor=none;fillColor=none;align=center;verticalAlign=middle;whiteSpace=wrap;rounded=0;fontColor=#000000;" parent="1" vertex="1">
                    <mxGeometry x="516" y="1129" width="126.63" height="30" as="geometry"/>
                </mxCell>
                <mxCell id="64" value="" style="shape=note;whiteSpace=wrap;html=1;backgroundOutline=1;darkOpacity=0.05;strokeColor=#36393d;fillColor=#f9f7ed;" parent="1" vertex="1">
                    <mxGeometry x="840" y="240" width="315.94" height="380" as="geometry"/>
                </mxCell>
                <mxCell id="31" value="" style="ellipse;whiteSpace=wrap;html=1;strokeColor=#36393d;fillColor=#cce5ff;" parent="1" vertex="1">
                    <mxGeometry x="847.75" y="270" width="162.5" height="100" as="geometry"/>
                </mxCell>
                <mxCell id="38" value="" style="ellipse;whiteSpace=wrap;html=1;strokeColor=#36393d;fillColor=#cce5ff;" parent="1" vertex="1">
                    <mxGeometry x="910" y="380" width="160" height="100" as="geometry"/>
                </mxCell>
                <mxCell id="44" value="" style="ellipse;whiteSpace=wrap;html=1;strokeColor=#36393d;fillColor=#cce5ff;" parent="1" vertex="1">
                    <mxGeometry x="850" y="500" width="162.5" height="100" as="geometry"/>
                </mxCell>
                <mxCell id="40" value="" style="endArrow=classic;html=1;dashed=1;strokeColor=#000000;fontColor=#000000;startArrow=none;" parent="1" source="96" edge="1">
                    <mxGeometry width="50" height="50" relative="1" as="geometry">
                        <mxPoint x="730" y="439.5" as="sourcePoint"/>
                        <mxPoint x="890" y="440" as="targetPoint"/>
                    </mxGeometry>
                </mxCell>
                <mxCell id="42" value="1.1 : Saisir son retour" style="text;html=1;strokeColor=none;fillColor=none;align=center;verticalAlign=middle;whiteSpace=wrap;rounded=0;fontColor=#000000;" parent="1" vertex="1">
                    <mxGeometry x="869" y="305" width="120" height="30" as="geometry"/>
                </mxCell>
                <mxCell id="39" value="1.2 : Valider son retour" style="text;html=1;strokeColor=none;fillColor=none;align=center;verticalAlign=middle;whiteSpace=wrap;rounded=0;fontColor=#000000;" parent="1" vertex="1">
                    <mxGeometry x="925" y="415" width="130" height="30" as="geometry"/>
                </mxCell>
                <mxCell id="45" value="1.3 :&amp;nbsp; Supprimer son retour" style="text;html=1;strokeColor=none;fillColor=none;align=center;verticalAlign=middle;whiteSpace=wrap;rounded=0;fontColor=#000000;" parent="1" vertex="1">
                    <mxGeometry x="852" y="535" width="154" height="30" as="geometry"/>
                </mxCell>
                <mxCell id="65" value="Rédiger un retour" style="text;html=1;strokeColor=none;fillColor=none;align=center;verticalAlign=middle;whiteSpace=wrap;rounded=0;fontColor=#000000;rotation=90;" parent="1" vertex="1">
                    <mxGeometry x="1080" y="425" width="130" height="30" as="geometry"/>
                </mxCell>
                <mxCell id="67" value="" style="rounded=1;whiteSpace=wrap;html=1;strokeColor=#36393d;fillColor=#eeeeee;" parent="1" vertex="1">
                    <mxGeometry x="777" y="1087" width="228.75" height="110" as="geometry"/>
                </mxCell>
                <mxCell id="68" value="L'administrateur vérifie le nombre de participants. &lt;br&gt;Les résultats ne lui sont pas accessibles." style="text;html=1;strokeColor=none;fillColor=none;align=left;verticalAlign=middle;whiteSpace=wrap;rounded=0;fontColor=#000000;" parent="1" vertex="1">
                    <mxGeometry x="789" y="1135" width="200" height="30" as="geometry"/>
                </mxCell>
                <mxCell id="81" value="" style="endArrow=classic;html=1;strokeColor=#000000;fontColor=#000000;dashed=1;" parent="1" edge="1">
                    <mxGeometry width="50" height="50" relative="1" as="geometry">
                        <mxPoint x="72" y="1636.5" as="sourcePoint"/>
                        <mxPoint x="230" y="1636.5" as="targetPoint"/>
                    </mxGeometry>
                </mxCell>
                <mxCell id="95" value="" style="endArrow=none;html=1;dashed=1;strokeColor=#000000;fontColor=#000000;" parent="1" target="94" edge="1">
                    <mxGeometry width="50" height="50" relative="1" as="geometry">
                        <mxPoint x="717.5" y="410" as="sourcePoint"/>
                        <mxPoint x="840" y="330" as="targetPoint"/>
                    </mxGeometry>
                </mxCell>
                <mxCell id="94" value="include" style="text;html=1;strokeColor=none;fillColor=none;align=center;verticalAlign=middle;whiteSpace=wrap;rounded=0;fontColor=#000000;" parent="1" vertex="1">
                    <mxGeometry x="746" y="360" width="60" height="30" as="geometry"/>
                </mxCell>
                <mxCell id="97" value="" style="endArrow=none;html=1;dashed=1;strokeColor=#000000;fontColor=#000000;" parent="1" target="96" edge="1">
                    <mxGeometry width="50" height="50" relative="1" as="geometry">
                        <mxPoint x="730" y="439.5" as="sourcePoint"/>
                        <mxPoint x="890" y="440" as="targetPoint"/>
                    </mxGeometry>
                </mxCell>
                <mxCell id="96" value="include" style="text;html=1;strokeColor=none;fillColor=none;align=center;verticalAlign=middle;whiteSpace=wrap;rounded=0;fontColor=#000000;" parent="1" vertex="1">
                    <mxGeometry x="774" y="423" width="60" height="30" as="geometry"/>
                </mxCell>
                <mxCell id="99" value="" style="endArrow=none;html=1;dashed=1;strokeColor=#000000;fontColor=#000000;" parent="1" target="98" edge="1">
                    <mxGeometry width="50" height="50" relative="1" as="geometry">
                        <mxPoint x="707.5" y="475" as="sourcePoint"/>
                        <mxPoint x="840" y="540" as="targetPoint"/>
                    </mxGeometry>
                </mxCell>
                <mxCell id="98" value="include" style="text;html=1;strokeColor=none;fillColor=none;align=center;verticalAlign=middle;whiteSpace=wrap;rounded=0;fontColor=#000000;" parent="1" vertex="1">
                    <mxGeometry x="746" y="493" width="60" height="30" as="geometry"/>
                </mxCell>
                <mxCell id="104" value="" style="ellipse;whiteSpace=wrap;html=1;strokeColor=#36393d;fillColor=#cce5ff;" parent="1" vertex="1">
                    <mxGeometry x="504" y="906" width="162" height="100" as="geometry"/>
                </mxCell>
                <mxCell id="105" value="" style="endArrow=none;dashed=1;html=1;dashPattern=1 3;strokeWidth=2;strokeColor=#000000;fontColor=#000000;entryX=1;entryY=0.5;entryDx=0;entryDy=0;exitX=0;exitY=0.5;exitDx=0;exitDy=0;" parent="1" source="67" target="59" edge="1">
                    <mxGeometry width="50" height="50" relative="1" as="geometry">
                        <mxPoint x="768" y="1142" as="sourcePoint"/>
                        <mxPoint x="658.63" y="1136" as="targetPoint"/>
                    </mxGeometry>
                </mxCell>
                <mxCell id="106" value="4 : Gérer la liste d'utilisateur" style="text;html=1;strokeColor=none;fillColor=none;align=center;verticalAlign=middle;whiteSpace=wrap;rounded=0;fontColor=#000000;" parent="1" vertex="1">
                    <mxGeometry x="507.5" y="943" width="155" height="30" as="geometry"/>
                </mxCell>
                <mxCell id="107" value="" style="endArrow=classic;html=1;dashed=1;strokeColor=#000000;fontColor=#000000;" parent="1" edge="1">
                    <mxGeometry width="50" height="50" relative="1" as="geometry">
                        <mxPoint x="354" y="1097" as="sourcePoint"/>
                        <mxPoint x="495" y="959" as="targetPoint"/>
                    </mxGeometry>
                </mxCell>
                <mxCell id="114" value="" style="shape=note;whiteSpace=wrap;html=1;backgroundOutline=1;darkOpacity=0.05;strokeColor=#36393d;fillColor=#f9f7ed;" parent="1" vertex="1">
                    <mxGeometry x="777" y="741" width="266" height="312" as="geometry"/>
                </mxCell>
                <mxCell id="108" value="" style="ellipse;whiteSpace=wrap;html=1;strokeColor=#36393d;fillColor=#cce5ff;" parent="1" vertex="1">
                    <mxGeometry x="790.5" y="785.5" width="157" height="95" as="geometry"/>
                </mxCell>
                <mxCell id="109" value="4.1 : Ajouter utilisateur" style="text;html=1;strokeColor=none;fillColor=none;align=center;verticalAlign=middle;whiteSpace=wrap;rounded=0;fontColor=#000000;" parent="1" vertex="1">
                    <mxGeometry x="807.5" y="818" width="123" height="30" as="geometry"/>
                </mxCell>
                <mxCell id="110" value="" style="ellipse;whiteSpace=wrap;html=1;strokeColor=#36393d;fillColor=#cce5ff;" parent="1" vertex="1">
                    <mxGeometry x="794" y="906" width="159" height="93.5" as="geometry"/>
                </mxCell>
                <mxCell id="111" value="4.2 : Supprimer utilisateur" style="text;html=1;strokeColor=none;fillColor=none;align=center;verticalAlign=middle;whiteSpace=wrap;rounded=0;fontColor=#000000;" parent="1" vertex="1">
                    <mxGeometry x="799.75" y="937.75" width="147.5" height="30" as="geometry"/>
                </mxCell>
                <mxCell id="112" value="" style="endArrow=classic;html=1;strokeColor=#000000;fontColor=#000000;dashed=1;entryX=0.004;entryY=0.333;entryDx=0;entryDy=0;entryPerimeter=0;startArrow=none;" parent="1" source="118" target="114" edge="1">
                    <mxGeometry width="50" height="50" relative="1" as="geometry">
                        <mxPoint x="677.37" y="941" as="sourcePoint"/>
                        <mxPoint x="776" y="866" as="targetPoint"/>
                    </mxGeometry>
                </mxCell>
                <mxCell id="113" value="" style="endArrow=classic;html=1;dashed=1;strokeColor=#000000;fontColor=#000000;entryX=-0.008;entryY=0.676;entryDx=0;entryDy=0;entryPerimeter=0;startArrow=none;" parent="1" source="121" target="114" edge="1">
                    <mxGeometry width="50" height="50" relative="1" as="geometry">
                        <mxPoint x="677.37" y="954.5" as="sourcePoint"/>
                        <mxPoint x="755.37" y="957.5" as="targetPoint"/>
                    </mxGeometry>
                </mxCell>
                <mxCell id="117" value="Gérer liste d'utilisateur" style="text;html=1;strokeColor=none;fillColor=none;align=center;verticalAlign=middle;whiteSpace=wrap;rounded=0;fontColor=#000000;rotation=90;" parent="1" vertex="1">
                    <mxGeometry x="962" y="886.5" width="134" height="21" as="geometry"/>
                </mxCell>
                <mxCell id="120" value="" style="endArrow=none;html=1;strokeColor=#000000;fontColor=#000000;dashed=1;" parent="1" edge="1">
                    <mxGeometry width="50" height="50" relative="1" as="geometry">
                        <mxPoint x="677.37" y="941" as="sourcePoint"/>
                        <mxPoint x="711" y="908" as="targetPoint"/>
                    </mxGeometry>
                </mxCell>
                <mxCell id="118" value="include" style="text;html=1;strokeColor=none;fillColor=none;align=center;verticalAlign=middle;whiteSpace=wrap;rounded=0;fontColor=#000000;" parent="1" vertex="1">
                    <mxGeometry x="701" y="880.5" width="60" height="30" as="geometry"/>
                </mxCell>
                <mxCell id="122" value="" style="endArrow=none;html=1;dashed=1;strokeColor=#000000;fontColor=#000000;entryX=-0.008;entryY=0.676;entryDx=0;entryDy=0;entryPerimeter=0;" parent="1" target="121" edge="1">
                    <mxGeometry width="50" height="50" relative="1" as="geometry">
                        <mxPoint x="677.37" y="954.5" as="sourcePoint"/>
                        <mxPoint x="774.8720000000001" y="951.912" as="targetPoint"/>
                    </mxGeometry>
                </mxCell>
                <mxCell id="121" value="include" style="text;html=1;strokeColor=none;fillColor=none;align=center;verticalAlign=middle;whiteSpace=wrap;rounded=0;fontColor=#000000;" parent="1" vertex="1">
                    <mxGeometry x="691.75" y="935" width="60" height="30" as="geometry"/>
                </mxCell>
                <mxCell id="123" value="" style="endArrow=classic;html=1;dashed=1;strokeColor=#000000;fontColor=#000000;" parent="1" edge="1">
                    <mxGeometry width="50" height="50" relative="1" as="geometry">
                        <mxPoint x="352" y="1124" as="sourcePoint"/>
                        <mxPoint x="511" y="1278" as="targetPoint"/>
                    </mxGeometry>
                </mxCell>
                <mxCell id="147" style="edgeStyle=none;html=1;exitX=1;exitY=0.5;exitDx=0;exitDy=0;strokeColor=#000000;dashed=1;startArrow=none;" edge="1" parent="1" source="145">
                    <mxGeometry relative="1" as="geometry">
                        <mxPoint x="810" y="1284" as="targetPoint"/>
                    </mxGeometry>
                </mxCell>
                <mxCell id="124" value="c" style="ellipse;whiteSpace=wrap;html=1;strokeColor=#36393d;fillColor=#cce5ff;" parent="1" vertex="1">
                    <mxGeometry x="519" y="1234" width="162.5" height="100" as="geometry"/>
                </mxCell>
                <mxCell id="125" value="5 :&amp;nbsp; Créer un tableau" style="text;html=1;strokeColor=none;fillColor=none;align=center;verticalAlign=middle;whiteSpace=wrap;rounded=0;fontColor=#000000;" parent="1" vertex="1">
                    <mxGeometry x="528" y="1269" width="143.57" height="30" as="geometry"/>
                </mxCell>
                <mxCell id="129" value="" style="endArrow=classic;html=1;strokeColor=#000000;fontColor=#000000;dashed=1;" parent="1" edge="1">
                    <mxGeometry width="50" height="50" relative="1" as="geometry">
                        <mxPoint x="72" y="1616" as="sourcePoint"/>
                        <mxPoint x="228" y="1484" as="targetPoint"/>
                    </mxGeometry>
                </mxCell>
                <mxCell id="130" value="" style="ellipse;whiteSpace=wrap;html=1;strokeColor=#36393d;fillColor=#cce5ff;" parent="1" vertex="1">
                    <mxGeometry x="233.75" y="1415" width="162.5" height="100" as="geometry"/>
                </mxCell>
                <mxCell id="131" value="7 : Visualiser les retours dans un tableau" style="text;html=1;strokeColor=none;fillColor=none;align=center;verticalAlign=middle;whiteSpace=wrap;rounded=0;fontColor=#000000;" parent="1" vertex="1">
                    <mxGeometry x="245.56" y="1454" width="141.38" height="30" as="geometry"/>
                </mxCell>
                <mxCell id="132" value="" style="shape=note;whiteSpace=wrap;html=1;backgroundOutline=1;darkOpacity=0.05;strokeColor=#36393d;fillColor=#f9f7ed;" parent="1" vertex="1">
                    <mxGeometry x="520" y="1530" width="570" height="230" as="geometry"/>
                </mxCell>
                <mxCell id="54" value="" style="ellipse;whiteSpace=wrap;html=1;strokeColor=#36393d;fillColor=#cce5ff;" parent="1" vertex="1">
                    <mxGeometry x="233.75" y="1587" width="162.5" height="100" as="geometry"/>
                </mxCell>
                <mxCell id="55" value="8: Visualiser la liste des utilisateurs" style="text;html=1;strokeColor=none;fillColor=none;align=center;verticalAlign=middle;whiteSpace=wrap;rounded=0;fontColor=#000000;" parent="1" vertex="1">
                    <mxGeometry x="258.88" y="1624.5" width="112.25" height="30" as="geometry"/>
                </mxCell>
                <mxCell id="27" value="" style="ellipse;whiteSpace=wrap;html=1;strokeColor=#36393d;fillColor=#cce5ff;" parent="1" vertex="1">
                    <mxGeometry x="528" y="1587.5" width="160" height="100" as="geometry"/>
                </mxCell>
                <mxCell id="48" value="8.1 :&amp;nbsp; Visualiser les retours par employé" style="text;html=1;strokeColor=none;fillColor=none;align=center;verticalAlign=middle;whiteSpace=wrap;rounded=0;fontColor=#000000;" parent="1" vertex="1">
                    <mxGeometry x="536" y="1624.5" width="144" height="30" as="geometry"/>
                </mxCell>
                <mxCell id="101" value="" style="endArrow=none;html=1;dashed=1;strokeColor=#000000;fontColor=#000000;" parent="1" target="100" edge="1">
                    <mxGeometry width="50" height="50" relative="1" as="geometry">
                        <mxPoint x="700" y="1639.5" as="sourcePoint"/>
                        <mxPoint x="785.0381253319645" y="1641.244019976307" as="targetPoint"/>
                    </mxGeometry>
                </mxCell>
                <mxCell id="82" value="" style="endArrow=classic;html=1;dashed=1;strokeColor=#000000;fontColor=#000000;startArrow=none;" parent="1" source="100" target="83" edge="1">
                    <mxGeometry width="50" height="50" relative="1" as="geometry">
                        <mxPoint x="700" y="1639.5" as="sourcePoint"/>
                        <mxPoint x="825.25" y="1642" as="targetPoint"/>
                    </mxGeometry>
                </mxCell>
                <mxCell id="100" value="include" style="text;html=1;strokeColor=none;fillColor=none;align=center;verticalAlign=middle;whiteSpace=wrap;rounded=0;fontColor=#000000;" parent="1" vertex="1">
                    <mxGeometry x="740" y="1624.5" width="60" height="30" as="geometry"/>
                </mxCell>
                <mxCell id="83" value="" style="ellipse;whiteSpace=wrap;html=1;strokeColor=#36393d;fillColor=#cce5ff;" parent="1" vertex="1">
                    <mxGeometry x="845" y="1587" width="169.75" height="100.5" as="geometry"/>
                </mxCell>
                <mxCell id="84" value="8.2 : Visualiser les statistiques" style="text;html=1;strokeColor=none;fillColor=none;align=center;verticalAlign=middle;whiteSpace=wrap;rounded=0;fontColor=#000000;" parent="1" vertex="1">
                    <mxGeometry x="847.75" y="1621" width="166" height="30" as="geometry"/>
                </mxCell>
                <mxCell id="133" value="visualiser retour et statistiques d'un utilisateur" style="text;html=1;strokeColor=none;fillColor=none;align=center;verticalAlign=middle;whiteSpace=wrap;rounded=0;fontColor=#000000;rotation=90;" parent="1" vertex="1">
                    <mxGeometry x="998.07" y="1640" width="149.37" height="21" as="geometry"/>
                </mxCell>
                <mxCell id="134" value="" style="endArrow=classic;html=1;dashed=1;strokeColor=#000000;startArrow=none;" parent="1" source="135" edge="1">
                    <mxGeometry width="50" height="50" relative="1" as="geometry">
                        <mxPoint x="396.25" y="1641" as="sourcePoint"/>
                        <mxPoint x="520" y="1640" as="targetPoint"/>
                        <Array as="points">
                            <mxPoint x="480" y="1640"/>
                        </Array>
                    </mxGeometry>
                </mxCell>
                <mxCell id="136" value="" style="endArrow=none;html=1;dashed=1;strokeColor=#000000;" parent="1" edge="1">
                    <mxGeometry width="50" height="50" relative="1" as="geometry">
                        <mxPoint x="396.25" y="1641" as="sourcePoint"/>
                        <mxPoint x="420" y="1641" as="targetPoint"/>
                    </mxGeometry>
                </mxCell>
                <mxCell id="135" value="include" style="text;html=1;strokeColor=none;fillColor=none;align=center;verticalAlign=middle;whiteSpace=wrap;rounded=0;fontColor=#000000;" parent="1" vertex="1">
                    <mxGeometry x="425" y="1624.5" width="60" height="30" as="geometry"/>
                </mxCell>
                <mxCell id="138" value="" style="endArrow=classic;html=1;dashed=1;strokeColor=#000000;startArrow=none;" parent="1" source="140" edge="1">
                    <mxGeometry width="50" height="50" relative="1" as="geometry">
                        <mxPoint x="396.25" y="1464.5" as="sourcePoint"/>
                        <mxPoint x="530" y="1465" as="targetPoint"/>
                    </mxGeometry>
                </mxCell>
                <mxCell id="141" value="" style="endArrow=none;html=1;dashed=1;strokeColor=#000000;" parent="1" target="140" edge="1">
                    <mxGeometry width="50" height="50" relative="1" as="geometry">
                        <mxPoint x="396.25" y="1464.5" as="sourcePoint"/>
                        <mxPoint x="530" y="1465" as="targetPoint"/>
                    </mxGeometry>
                </mxCell>
                <mxCell id="140" value="include" style="text;html=1;strokeColor=none;fillColor=none;align=center;verticalAlign=middle;whiteSpace=wrap;rounded=0;fontColor=#000000;" parent="1" vertex="1">
                    <mxGeometry x="425" y="1450" width="60" height="30" as="geometry"/>
                </mxCell>
                <mxCell id="143" value="c" style="ellipse;whiteSpace=wrap;html=1;strokeColor=#36393d;fillColor=#cce5ff;" parent="1" vertex="1">
                    <mxGeometry x="529.25" y="1415" width="162.5" height="100" as="geometry"/>
                </mxCell>
                <mxCell id="144" value="7.1 : Modifier le tableau" style="text;html=1;strokeColor=none;fillColor=none;align=center;verticalAlign=middle;whiteSpace=wrap;rounded=0;fontColor=#000000;" parent="1" vertex="1">
                    <mxGeometry x="538.62" y="1450" width="141.38" height="30" as="geometry"/>
                </mxCell>
                <mxCell id="148" value="" style="edgeStyle=none;html=1;exitX=1;exitY=0.5;exitDx=0;exitDy=0;strokeColor=#000000;dashed=1;endArrow=none;" edge="1" parent="1" source="124" target="145">
                    <mxGeometry relative="1" as="geometry">
                        <mxPoint x="790" y="1284" as="targetPoint"/>
                        <mxPoint x="681.5" y="1284" as="sourcePoint"/>
                    </mxGeometry>
                </mxCell>
                <mxCell id="145" value="include" style="text;html=1;strokeColor=none;fillColor=none;align=center;verticalAlign=middle;whiteSpace=wrap;rounded=0;fontColor=#000000;" vertex="1" parent="1">
                    <mxGeometry x="707.5" y="1269" width="60" height="30" as="geometry"/>
                </mxCell>
                <mxCell id="149" value="c" style="ellipse;whiteSpace=wrap;html=1;strokeColor=#36393d;fillColor=#cce5ff;" vertex="1" parent="1">
                    <mxGeometry x="820" y="1234" width="162.5" height="100" as="geometry"/>
                </mxCell>
                <mxCell id="150" value="5.1 :&amp;nbsp; Modifier un tableau" style="text;html=1;strokeColor=none;fillColor=none;align=center;verticalAlign=middle;whiteSpace=wrap;rounded=0;fontColor=#000000;" vertex="1" parent="1">
                    <mxGeometry x="829.46" y="1269" width="143.57" height="30" as="geometry"/>
                </mxCell>
            </root>
        </mxGraphModel>
    </diagram>
</mxfile>